{
    "pt_BR":{
        "flexform.sDEF.componentType.sitemap_videos.theme1":"Sitemap - Vídeos",
        "sitemap_videos.theme1.componentDescription":"Componente que exibe até 1000 vídeos automáticos.",
        "flexform.sSITEMAPVIDEOS.sheetTitle":"Configurações do Componente",
        "flexform.sSITEMAPVIDEOS.sitename":"Nome do Site"
    },
    "default":{
        "flexform.sDEF.componentType.sitemap_videos.theme1":"Sitemap - Vídeos",
        "sitemap_videos.theme1.componentDescription":"Componente que exibe até 1000 vídeos automáticos.",
        "flexform.sSITEMAPVIDEOS.sheetTitle":"Configurações do Componente",
        "flexform.sSITEMAPVIDEOS.sitename":"Nome do Site"
    }
}
